<?xml version='1.0'?>
<robot name="dd_robot">

    <!-- Base Footprint -->
    <link name="base_footprint">
        <visual>
            <origin xyz="0 0 0.125" rpy="0 0 0" />
            <geometry>
                <box size="0.5 0.5 0.25"/>
            </geometry>
        </visual>

        <!-- Base collision -->
        <collision>
            <origin xyz="0 0 0.125" rpy="0 0 0" />
            <geometry>
                <box size="0.5 0.5 0.25"/>
            </geometry>
        </collision>

        <inertial>
            <mass value="5"/>
            <inertia ixx="0.13" ixy="0.0" ixz="0.0" iyy="0.21" iyz="0.0" izz="0.13"/>
        </inertial>

        <!-- Caster -->
        <visual name="caster">
            <origin xyz="0.2 0 0" rpy="0 0 0" />
            <geometry>
                <sphere radius="0.05" />
            </geometry>
        </visual>

        <!-- Caster collision -->
        <collision>
            <origin xyz="0.2 0 0" rpy="0 0 0" />
            <geometry>
                <sphere radius="0.05" />
            </geometry>
        </collision>

        <inertial>
            <mass value="0.5"/>
            <inertia ixx="0.0001" ixy="0.0" ixz="0.0" iyy="0.0001" iyz="0.0" izz="0.0001"/>
        </inertial>

    </link>

    <joint name="base_joint" type="fixed">
        <parent link="base_footprint"/>
        <child link="base_link"/>
        
    </joint>


    <!-- Base Link -->
    <link name="base_link">
        <visual>
            <origin xyz="0 0 0.125" rpy="0 0 0" />
            <geometry>
                <box size="0.5 0.5 0.25"/>
            </geometry>
        </visual>

        <!-- Base collision -->
        <collision>
            <origin xyz="0 0 0.125" rpy="0 0 0" />
            <geometry>
                <box size="0.5 0.5 0.25"/>
            </geometry>
        </collision>

        <inertial>
            <mass value="5"/>
            <inertia ixx="0.13" ixy="0.0" ixz="0.0" iyy="0.21" iyz="0.0" izz="0.13"/>
        </inertial>

        <!-- Caster -->
        <visual name="caster">
            <origin xyz="0.2 0 0" rpy="0 0 0" />
            <geometry>
                <sphere radius="0.05" />
            </geometry>
        </visual>

        <!-- Caster collision -->
        <collision>
            <origin xyz="0.2 0 0" rpy="0 0 0" />
            <geometry>
                <sphere radius="0.05" />
            </geometry>
        </collision>

        <inertial>
            <mass value="0.5"/>
            <inertia ixx="0.0001" ixy="0.0" ixz="0.0" iyy="0.0001" iyz="0.0" izz="0.0001"/>
        </inertial>

    </link>

    <!-- Right Wheel -->
    <link name="right_wheel">
        <visual>
            <origin xyz="0 0 0" rpy="1.570795 0 0" />
            <geometry>
                <cylinder length="0.1" radius="0.2" />
            </geometry>
            <material name="black">
                <color rgba="0.05 0.05 0.05 1"/>
            </material>
        </visual>

        <!-- Right Wheel collision -->
        <collision>
            <origin xyz="0 0 0" rpy="1.570795 0 0" />
            <geometry>
                <cylinder length="0.1" radius="0.2" />
            </geometry>
        </collision>

        <inertial>
            <mass value="0.5"/>
            <inertia ixx="0.01" ixy="0.0" ixz="0.0" iyy="0.005" iyz="0.0" izz="0.005"/>
        </inertial>

    </link>

    <joint name="joint_right_wheel" type="continuous">
        <parent link="base_link"/>
        <child link="right_wheel"/>
        <origin xyz="0 -0.30 0.125" rpy="0 0 0" />
        <axis xyz="0 1 0" />
    </joint>

    <!-- Left Wheel -->
    <link name="left_wheel">
        <visual>
            <origin xyz="0 0 0" rpy="1.570795 0 0" />
            <geometry>
                <cylinder length="0.1" radius="0.2" />
            </geometry>
            <material name="black"/>
        </visual>

        <!-- Left Wheel collision -->
        <collision>
            <origin xyz="0 0 0" rpy="1.570795 0 0" />
            <geometry>
                <cylinder length="0.1" radius="0.2" />
            </geometry>
        </collision>

        <inertial>
            <mass value="0.5"/>
            <inertia ixx="0.01" ixy="0.0" ixz="0.0" iyy="0.005" iyz="0.0" izz="0.005"/>
        </inertial>
    
    </link>
    
    <joint name="joint_left_wheel" type="continuous">
    	<parent link="base_link"/>
    	<child link="left_wheel"/>
    	<origin xyz="0 0.30 0.125" rpy="0 0 0" />
    	<axis xyz="0 1 0" />
    </joint>

      <!-- Camera -->
    <link name="camera_link">
        <collision>
            <origin xyz="0 0 0" rpy="0 0 0"/>
            <geometry>
                <mesh filename="package://ros_robotics/meshes/astra.dae" scale="0.001 0.001 0.001" />
            </geometry>
        </collision>

        <visual>
            <origin xyz="0 0 0" rpy="0 0 0"/>
            <geometry>
                <mesh filename="package://ros_robotics/meshes/astra.dae" scale="0.001 0.001 0.001" />
            </geometry>
            <material name="red"/>
        </visual>

        <inertial>
            <mass value="1e-5" />
            <origin xyz="0 0 0" rpy="0 0 0"/>
            <inertia ixx="1e-6" ixy="0" ixz="0" iyy="1e-6" iyz="0" izz="1e-6" />
        </inertial>
    </link>

    <joint name="camera_joint" type="fixed">
        <axis xyz="0 1 0" />
        <origin xyz="0.25 0 0.275" rpy="1.57 0 1.57"/>
        <parent link="base_link"/>
        <child link="camera_link"/>
  </joint>

</robot>
